321,0.0,0.0,0.0,0.9403846153846154,0.02115384615384615,0.0,0.023076923076923078,0.015384615384615389
322,0.0,0.0,0.0,0.9926229508196721,0.0,0.0,0.006557377049180328,8.19672131147541E-4
323,0.0014285714285714286,0.028571428571428574,0.0,0.9685714285714285,0.0,0.0,0.0014285714285714286,0.0
324,0.010211267605633801,0.0,0.0,0.963380281690141,0.0,0.0,0.0035211267605633804,0.02288732394366197
325,0.0,0.0,0.0,0.9420000000000002,0.0,0.053000000000000005,0.005,0.0
326,0.003246753246753247,0.0,0.005844155844155844,0.9792207792207794,0.0,0.005194805194805195,0.006493506493506494,0.0
327,0.0,0.03636363636363637,0.0,0.9584415584415584,0.0,0.0,0.005194805194805195,0.0
328,0.0,0.0,0.0,0.998780487804878,0.0,0.0,0.0012195121951219512,0.0
329,0.0,0.0,0.0,1.0,0.0,0.0,0.0,0.0
330,0.020454545454545454,0.0,0.0,0.9469696969696969,0.0,7.575757575757576E-4,0.0,0.031818181818181815
331,0.0,0.0,0.0,0.950806451612903,0.04919354838709678,0.0,0.0,0.0
332,0.0,0.0,0.0,0.7764150943396227,0.03773584905660377,0.0,0.18207547169811325,0.0037735849056603774
333,8.928571428571428E-4,0.0,0.0,0.9580357142857144,0.03660714285714285,4.464285714285714E-4,0.0040178571428571425,0.0
334,0.0,0.0,0.0,0.881651376146789,4.5871559633027525E-4,0.0,0.1178899082568807,0.0
335,0.0,0.0,4.716981132075472E-4,0.9882075471698115,0.008018867924528302,9.433962264150943E-4,0.002358490566037736,0.0
336,0.0,5.747126436781609E-4,0.0,0.9919540229885057,2.8735632183908046E-4,0.007183908045977011,0.0,0.0
337,0.003,0.013000000000000001,0.0,0.8790000000000001,0.10200000000000002,0.001,0.002,0.0
338,0.0,0.0,0.039344262295081964,0.960655737704918,0.0,0.0,0.0,0.0
339,0.0,0.0,0.0,0.9726666666666665,0.0,0.0,0.0,0.027333333333333338
340,0.0057692307692307696,0.02355769230769231,4.807692307692308E-4,0.8528846153846154,0.0,0.0,0.10721153846153848,0.010096153846153848
341,0.043523316062176166,2.5906735751295336E-4,0.0,0.8834196891191708,0.0,0.0051813471502590676,0.06502590673575129,0.0025906735751295338
342,0.0,0.0,0.0,0.9200000000000002,0.0,0.07857142857142857,7.142857142857143E-4,7.142857142857143E-4
343,0.002688172043010753,0.0,0.0,0.7354838709677419,5.376344086021505E-4,0.0,0.26129032258064505,0.0
344,0.0,0.0,0.0,0.9410714285714283,0.007142857142857143,0.007142857142857143,0.04464285714285714,0.0
345,0.07298387096774192,0.0016129032258064516,0.0,0.9254032258064517,0.0,0.0,0.0,0.0
346,0.0,0.0673076923076923,0.0,0.9187500000000002,0.0,9.615384615384616E-4,4.807692307692308E-4,0.012499999999999997
347,0.0,0.0,0.0,0.8581081081081081,6.756756756756757E-4,0.012162162162162163,0.12905405405405407,0.0
348,0.0,0.0,0.033636363636363645,0.9609090909090907,0.0,0.004545454545454545,9.090909090909091E-4,0.0
349,0.0,0.0,0.0,0.9986842105263157,0.0,0.0,0.0013157894736842105,0.0
350,0.0,0.0,0.0,1.0,0.0,0.0,0.0,0.0
351,0.022554347826086958,0.01141304347826087,0.0,0.9062500000000002,2.717391304347826E-4,0.016576086956521737,0.04048913043478261,0.0024456521739130432
352,0.0,0.0,6.578947368421052E-4,0.9434210526315792,0.0,0.0,0.05592105263157895,0.0
353,7.142857142857143E-4,7.142857142857143E-4,7.142857142857143E-4,0.9957142857142856,0.0,0.0,0.002142857142857143,0.0
354,0.0,7.009345794392523E-4,0.0,0.8985981308411215,0.06962616822429904,0.03037383177570093,4.672897196261682E-4,2.336448598130841E-4
355,0.004113924050632911,0.0,0.0,0.9218354430379746,0.048417721518987336,0.014873417721518992,0.010126582278481013,6.329113924050633E-4
356,0.0,0.0766304347826087,0.0,0.773913043478261,0.023913043478260874,5.434782608695652E-4,0.12500000000000003,0.0
357,0.0,0.004516129032258065,0.0,0.9616129032258065,0.0,0.015161290322580645,0.0,0.018709677419354837
358,0.0,0.0,0.0,0.9596491228070176,0.04035087719298246,0.0,0.0,0.0
359,0.0745762711864407,0.07203389830508475,0.0,0.8491525423728813,0.0,8.47457627118644E-4,0.003389830508474576,0.0
360,0.0,0.005555555555555555,0.0,0.9944444444444442,0.0,0.0,0.0,0.0
361,9.615384615384616E-4,0.0014423076923076924,0.0,0.9302884615384615,0.0,4.807692307692308E-4,0.06682692307692308,0.0
362,0.03717391304347826,0.05956521739130434,0.0,0.7452173913043479,0.0,0.05434782608695653,0.10369565217391305,0.0
363,5.617977528089887E-4,0.05842696629213484,0.0,0.9410112359550562,0.0,0.0,0.0,0.0
364,0.0,0.08909090909090908,0.0036363636363636364,0.9072727272727275,0.0,0.0,0.0,0.0
365,0.11650485436893201,4.854368932038835E-4,0.0,0.8597087378640774,0.0,4.854368932038835E-4,0.022330097087378636,4.854368932038835E-4
366,0.0,0.0,0.0,0.8523809523809526,0.020238095238095243,0.0,0.1273809523809524,0.0
367,0.0,0.0,0.0,0.6829545454545454,0.0,0.01931818181818181,0.29772727272727273,0.0
368,0.005263157894736842,0.002631578947368421,0.0,0.8065789473684211,0.049342105263157875,0.0,0.13618421052631577,0.0
369,6.41025641025641E-4,0.028846153846153844,0.0,0.9673076923076922,0.0,0.0,0.0,0.003205128205128205
370,0.02006578947368421,0.0,0.0,0.9486842105263161,0.0,0.0,0.008223684210526315,0.02302631578947368
371,0.0010869565217391304,0.006521739130434782,0.0,0.9641304347826087,0.0,0.02608695652173913,0.0,0.002173913043478261
372,0.0,0.005769230769230769,0.0,0.9275641025641026,0.017948717948717954,0.008333333333333335,0.03974358974358975,6.41025641025641E-4
373,0.0,0.0,0.0,0.8173611111111111,0.0,0.0,0.1826388888888889,0.0
374,0.0,0.0,0.0,0.9154929577464788,0.06619718309859153,0.0,0.018309859154929577,0.0
375,0.0,0.1536842105263158,5.263157894736842E-4,0.6463157894736843,0.0,0.0010526315789473684,0.19631578947368425,0.002105263157894737
376,0.0,0.0,0.0,0.9690476190476192,0.0011904761904761904,0.0,0.029761904761904757,0.0
377,0.0,0.0,0.0,0.9744897959183675,0.0,0.02551020408163266,0.0,0.0
378,0.006896551724137931,0.0,0.0,0.9931034482758619,0.0,0.0,0.0,0.0
379,0.0,0.0,0.0,0.946218487394958,0.0,0.0,0.05378151260504203,0.0
380,4.854368932038835E-4,0.001941747572815534,0.0,0.996601941747573,0.0,0.0,9.70873786407767E-4,0.0
381,0.0,0.0,0.002,0.998,0.0,0.0,0.0,0.0
382,0.0,0.0,0.0,0.9250000000000002,0.04722222222222222,0.024999999999999994,0.0027777777777777775,0.0
383,0.0,0.005128205128205128,0.03119658119658119,0.961111111111111,0.0,0.0,0.0,0.002564102564102564
384,0.0,0.12959183673469385,0.0,0.8520408163265307,0.0,0.0,0.018367346938775512,0.0
385,0.0,0.011184210526315788,0.0,0.9532894736842102,0.0,0.0,0.001973684210526316,0.03355263157894737
386,0.0,0.03636363636363636,0.0,0.8561688311688311,0.001948051948051948,0.005844155844155844,0.09902597402597403,6.493506493506494E-4
387,5.494505494505495E-4,0.0,0.0,0.9972527472527473,0.0,0.0,0.002197802197802198,0.0
388,0.0,0.012790697674418604,0.008720930232558138,0.9779069767441861,0.0,0.0,0.0,5.813953488372093E-4
389,0.0,0.0,0.0,0.7716666666666667,0.0,0.0016666666666666666,0.22666666666666666,0.0
390,0.0,0.036986301369863014,0.0,0.9089041095890412,0.0,0.0,0.051369863013698634,0.0027397260273972603
391,0.0,0.0,0.002966101694915254,0.8512711864406782,0.028389830508474573,0.003389830508474576,0.11398305084745763,0.0
392,0.011682242990654203,0.0051401869158878505,0.0,0.8584112149532709,0.0,0.0,0.09953271028037383,0.02523364485981308
393,0.0,6.41025641025641E-4,0.0,0.9993589743589745,0.0,0.0,0.0,0.0
394,0.0,7.462686567164179E-4,0.0,0.9246268656716419,0.0029850746268656717,0.0,0.07164179104477611,0.0
395,6.944444444444444E-4,0.029166666666666667,0.005555555555555555,0.7013888888888888,0.02430555555555556,0.004166666666666667,0.2347222222222222,0.0
396,0.0,0.0,6.578947368421052E-4,0.7973684210526317,0.0,0.027631578947368417,0.16842105263157894,0.005921052631578947
397,0.0,0.03585858585858586,0.0025252525252525255,0.958080808080808,0.0,5.05050505050505E-4,0.0030303030303030303,0.0
398,0.0,0.03425925925925925,9.259259259259259E-4,0.9638888888888889,9.259259259259259E-4,0.0,0.0,0.0
399,0.0,4.950495049504951E-4,0.0,0.9975247524752475,0.0,0.0,0.0019801980198019802,0.0
400,0.0,0.0,5.88235294117647E-4,0.9994117647058823,0.0,0.0,0.0,0.0
721,0.023809523809523808,0.20396825396825397,0.0023809523809523807,0.7214285714285712,0.0,0.04444444444444444,0.0031746031746031746,7.936507936507937E-4
722,0.01627906976744186,0.02325581395348837,0.0,0.9581395348837205,0.002325581395348837,0.0,0.0,0.0
723,0.0,0.0,0.0,0.8299999999999998,0.06041666666666666,0.0029166666666666664,0.10666666666666666,0.0
724,0.02169811320754717,0.0042452830188679245,0.0,0.9561320754716982,0.0023584905660377358,0.01509433962264151,4.716981132075472E-4,0.0
725,0.0014705882352941176,0.12303921568627449,4.901960784313725E-4,0.8382352941176471,0.00392156862745098,0.03284313725490197,0.0,0.0
726,0.09313725490196079,0.0,0.0,0.9068627450980393,0.0,0.0,0.0,0.0
727,0.03731343283582088,0.004477611940298507,0.0,0.953731343283582,0.003731343283582089,7.462686567164179E-4,0.0,0.0
728,9.174311926605505E-4,0.008256880733944955,4.5871559633027525E-4,0.9022935779816518,0.010091743119266056,0.0,0.0779816513761468,0.0
729,0.0,0.010126582278481013,0.002531645569620253,0.9075949367088605,0.002531645569620253,0.0,0.07721518987341772,0.0
730,0.05256410256410256,0.0,0.0,0.8858974358974361,0.020512820512820516,0.03333333333333334,0.007692307692307693,0.0
731,0.04431818181818182,0.0011363636363636363,0.02159090909090909,0.9318181818181817,0.0,0.0,0.0,0.0011363636363636363
732,8.064516129032258E-4,0.0064516129032258064,0.0016129032258064516,0.9911290322580646,0.0,0.0,0.0,0.0
733,0.04009009009009009,0.12387387387387387,0.0013513513513513514,0.8274774774774775,0.0,0.007207207207207207,0.0,0.0
734,0.0,0.003947368421052632,6.578947368421052E-4,0.9559210526315789,6.578947368421052E-4,0.030263157894736836,0.0,0.008552631578947367
735,0.0,0.013779527559055118,0.0015748031496062992,0.9066929133858267,0.0,0.06968503937007874,3.937007874015748E-4,0.007874015748031496
736,0.005405405405405406,0.002702702702702703,0.0,0.870945945945946,0.0472972972972973,0.0013513513513513514,0.07162162162162161,6.756756756756757E-4
737,0.004605263157894736,0.03355263157894737,0.04078947368421052,0.9138157894736842,0.004605263157894736,0.001973684210526316,0.0,6.578947368421052E-4
738,0.0564516129032258,0.0,0.0,0.92258064516129,0.0,0.014516129032258063,0.0032258064516129032,0.0032258064516129032
739,0.0024271844660194173,0.07524271844660192,0.0,0.7189320388349514,0.003883495145631068,0.0,0.1951456310679611,0.00436893203883495
740,0.0,0.09627659574468084,0.0,0.872872340425532,0.0,0.030851063829787233,0.0,0.0
741,0.03009708737864077,0.17912621359223296,0.0,0.7883495145631068,0.0,0.0,0.0,0.0024271844660194173
742,0.0030303030303030303,0.00909090909090909,7.575757575757576E-4,0.958333333333333,0.026515151515151512,0.0022727272727272726,0.0,0.0
743,5.10204081632653E-4,0.0,0.0,0.8994897959183674,0.013775510204081635,0.059183673469387764,5.10204081632653E-4,0.02653061224489796
744,7.462686567164179E-4,0.0708955223880597,0.003731343283582089,0.8985074626865673,0.0,0.02462686567164178,0.0014925373134328358,0.0
745,0.0,0.0,0.0,1.0,0.0,0.0,0.0,0.0
746,0.01801801801801802,0.18198198198198196,4.5045045045045046E-4,0.7905405405405406,0.0,0.0027027027027027024,0.006306306306306306,0.0
747,0.0,8.771929824561403E-4,0.0,0.9745614035087717,0.0,0.021052631578947368,0.0,0.003508771929824561
748,0.04754098360655738,0.031967213114754096,0.0,0.9139344262295085,0.004098360655737705,0.0024590163934426227,0.0,0.0
749,0.057499999999999996,0.09111111111111113,0.0,0.8416666666666666,0.0,0.0,0.0019444444444444444,0.0077777777777777776
750,0.0023809523809523807,0.006349206349206349,0.0,0.9642857142857142,0.0,0.013492063492063491,0.0,0.013492063492063491
751,0.0,0.0,0.0,0.9695121951219511,0.026219512195121947,0.0,0.0,0.004268292682926829
752,0.0,0.13896103896103898,0.0,0.8603896103896105,0.0,0.0,6.493506493506494E-4,0.0
753,0.0012711864406779662,0.044915254237288135,8.47457627118644E-4,0.9521186440677966,8.47457627118644E-4,0.0,0.0,0.0
754,0.0,0.0,0.0,0.9990384615384615,0.0,0.0,9.615384615384616E-4,0.0
755,0.1508620689655173,0.00603448275862069,0.0,0.8422413793103448,0.0,0.0,0.0,8.620689655172414E-4
756,0.0,0.0,0.012500000000000002,0.9465277777777779,0.0,0.03993055555555556,0.0010416666666666667,0.0
757,0.0,0.0,0.0,1.0,0.0,0.0,0.0,0.0
758,0.0,0.0,0.0,0.996875,0.003125,0.0,0.0,0.0
759,0.007211538461538461,0.17932692307692305,0.0,0.770673076923077,0.0,0.0,9.615384615384616E-4,0.04182692307692308
760,0.0022727272727272726,0.0022727272727272726,0.0,0.9886363636363636,0.0,0.0,0.006818181818181818,0.0
761,0.0047619047619047615,0.03214285714285714,0.0,0.942063492063492,0.0,0.021031746031746026,0.0,0.0
762,0.021621621621621623,0.08986486486486486,0.0,0.8290540540540542,0.014189189189189188,0.0,0.0418918918918919,0.0033783783783783786
763,0.0014285714285714286,0.0,0.0,0.9557142857142857,0.02285714285714286,0.0,0.02,0.0
764,0.058450704225352104,0.14295774647887322,0.0,0.7985915492957747,0.0,0.0,0.0,0.0
765,0.0,0.007142857142857143,0.0,0.9842857142857143,0.0014285714285714286,0.002857142857142857,0.004285714285714286,0.0
766,0.0,0.12048192771084336,0.0024096385542168677,0.8753012048192771,0.0,0.0,0.0,0.0018072289156626504
767,0.0,0.10504587155963305,4.5871559633027525E-4,0.8926605504587155,0.0,0.0,0.0013761467889908258,4.5871559633027525E-4
768,0.0029069767441860465,0.0767441860465116,0.0,0.8872093023255815,0.0,0.03313953488372093,0.0,0.0
769,0.0,0.0,0.0,0.9992063492063492,0.0,0.0,7.936507936507937E-4,0.0
770,0.09732142857142856,0.0,0.03125000000000001,0.8714285714285713,0.0,0.0,0.0,0.0
771,0.0,0.14457831325301204,0.0,0.8427710843373493,0.00783132530120482,0.0048192771084337345,0.0,0.0
772,0.06999999999999999,0.18000000000000005,0.006666666666666666,0.7383333333333334,0.0,0.0,0.0016666666666666666,0.003333333333333333
773,0.0,0.00625,0.0,0.9518749999999997,0.0,0.0,0.0,0.04187500000000001
774,0.0,0.09536082474226804,0.0,0.9020618556701032,0.0,0.0,0.0,0.002577319587628866
775,0.078125,0.0,0.01640625,0.9046875,0.0,0.0,0.0,7.8125E-4
776,0.0,0.01089108910891089,0.0,0.956930693069307,0.0,0.015346534653465346,0.0,0.016831683168316833
777,0.0,0.2,0.0,0.7999999999999998,0.0,0.0,0.0,0.0
778,0.0,0.005084745762711865,0.0,0.9949152542372881,0.0,0.0,0.0,0.0
779,0.0057692307692307696,0.16217948717948716,0.0,0.8256410256410257,0.0,0.0,0.00641025641025641,0.0
780,0.04115384615384616,0.09115384615384615,0.0,0.8569230769230771,3.846153846153846E-4,0.0,3.846153846153846E-4,0.01
781,0.0,0.04274193548387095,0.0,0.9540322580645162,0.0,0.0,0.0032258064516129032,0.0
782,0.09918032786885247,0.0,0.0,0.9,0.0,8.19672131147541E-4,0.0,0.0
783,0.02222222222222222,0.10333333333333332,0.0,0.7577777777777781,0.11666666666666667,0.0,0.0,0.0
784,0.12986111111111112,0.0,0.0,0.8701388888888889,0.0,0.0,0.0,0.0
785,0.0010526315789473684,0.0010526315789473684,2.631578947368421E-4,0.9571052631578949,0.0,0.0,0.04052631578947368,0.0
786,0.014864864864864866,0.11959459459459461,0.0,0.8621621621621622,0.0,0.002702702702702703,0.0,6.756756756756757E-4
787,0.020000000000000004,0.0,0.0,0.865,0.0,0.04409090909090908,0.0,0.07090909090909091
788,0.10043103448275865,0.1331896551724138,0.0,0.765948275862069,0.0,4.310344827586207E-4,0.0,0.0
789,0.12102272727272727,0.1619318181818182,0.0,0.7159090909090909,0.0,0.0011363636363636363,0.0,0.0
790,0.02584269662921348,0.03904494382022473,0.0,0.9278089887640452,0.002247191011235955,0.0050561797752808986,0.0,0.0
791,0.0,0.0,0.0,1.0,0.0,0.0,0.0,0.0
792,0.16079136690647483,0.039928057553956835,0.011151079136690648,0.7640287769784172,3.5971223021582735E-4,0.023741007194244608,0.0,0.0
793,0.10072463768115943,0.0,0.0,0.8855072463768116,0.013768115942028985,0.0,0.0,0.0
794,0.03529411764705882,0.009803921568627453,0.0058823529411764705,0.9490196078431372,0.0,0.0,0.0,0.0
795,0.12272727272727271,0.002840909090909091,0.0,0.8732954545454545,0.0,0.0,0.0,0.0011363636363636363
796,0.0,0.24857142857142858,0.0,0.7514285714285716,0.0,0.0,0.0,0.0
797,0.040625,0.05625000000000001,0.0010416666666666667,0.9010416666666666,0.0,0.0,0.0010416666666666667,0.0
798,0.02720588235294118,0.11764705882352944,7.352941176470588E-4,0.8544117647058824,0.0,0.0,0.0,0.0
799,0.0,0.1951923076923077,0.0,0.8048076923076923,0.0,0.0,0.0,0.0
800,0.019672131147540985,0.009016393442622951,0.0,0.9172131147540984,0.0,0.052459016393442616,0.0,0.001639344262295082
