241,0.0,0.0,0.9335820895522386,0.0,0.04477611940298508,0.0,0.0,0.021641791044776117
242,0.0,0.005,0.9949999999999999,0.0,0.0,0.0,0.0,0.0
243,0.0015151515151515152,0.003787878787878788,0.7962121212121213,0.0,0.016666666666666663,0.0,0.03787878787878788,0.14393939393939392
244,0.0017441860465116279,0.0,0.8279069767441861,5.813953488372093E-4,0.08313953488372092,0.0,0.0,0.08662790697674418
245,0.0011627906976744186,0.0,0.9819767441860465,0.0,5.813953488372093E-4,0.012790697674418604,0.0029069767441860465,5.813953488372093E-4
246,8.333333333333333E-4,0.0,0.9983333333333334,0.0,0.0,0.0,0.0,8.333333333333333E-4
247,0.0,0.0,0.875,0.00125,0.013749999999999998,0.0,0.03458333333333334,0.07541666666666669
248,0.0,0.0,0.9962264150943396,0.0,0.0,0.0,0.0,0.0037735849056603774
249,0.0,0.0,0.7294642857142858,0.0,0.16964285714285715,0.0017857142857142857,0.0,0.09910714285714287
250,0.0,0.0,0.775,0.007352941176470588,0.0,0.0014705882352941176,7.352941176470588E-4,0.21544117647058822
251,0.10950704225352112,3.5211267605633805E-4,0.7221830985915494,0.0,0.0017605633802816902,0.1035211267605634,0.029225352112676056,0.03345070422535211
252,0.0011904761904761904,0.0,0.8136904761904763,0.0,0.002976190476190476,0.002976190476190476,0.036904761904761905,0.14226190476190476
253,0.07014925373134327,0.0,0.7567164179104477,0.0014925373134328358,0.09626865671641792,0.0,7.462686567164179E-4,0.07462686567164178
254,0.0,0.0,0.837058823529412,5.88235294117647E-4,0.048235294117647064,0.0,5.88235294117647E-4,0.11352941176470588
255,0.002702702702702703,0.0,0.9837837837837838,0.0,0.0,0.0,0.0,0.013513513513513514
256,0.0,0.0,0.6425675675675675,0.0013513513513513514,0.01486486486486487,0.0,0.0,0.34121621621621634
257,0.0,5.617977528089887E-4,0.9286516853932584,0.009550561797752809,0.010112359550561797,0.04494382022471911,0.0,0.006179775280898876
258,0.027941176470588237,0.0,0.872058823529412,0.011764705882352941,0.0014705882352941176,0.008823529411764706,0.06617647058823528,0.011764705882352943
259,0.0,0.0,0.99765625,0.0,0.0,0.0,0.0,0.00234375
260,0.0,0.0,0.7876811594202898,0.0,0.0,0.0,0.0,0.21231884057971015
261,0.002136752136752137,0.009829059829059827,0.8700854700854703,4.273504273504274E-4,0.019230769230769232,0.0029914529914529912,0.0,0.0952991452991453
262,0.0,0.08406593406593406,0.9148351648351649,0.0,0.0,0.0,0.0,0.001098901098901099
263,0.0,0.0,0.880769230769231,5.494505494505495E-4,0.06153846153846152,5.494505494505495E-4,0.05659340659340657,0.0
264,0.0,0.0,0.9230769230769231,0.0,7.692307692307692E-4,0.0,0.0,0.07615384615384616
265,0.0,0.0,0.8703389830508472,0.001694915254237288,0.0788135593220339,0.023728813559322038,0.0,0.02542372881355932
266,0.0,0.0,1.0,0.0,0.0,0.0,0.0,0.0
267,0.11927710843373493,0.0012048192771084338,0.8096385542168674,0.031927710843373494,0.0,0.0012048192771084338,0.0066265060240963845,0.030120481927710847
268,0.006493506493506493,0.0,0.9636363636363635,0.020129870129870133,6.493506493506494E-4,0.009090909090909092,0.0,0.0
269,0.0,0.0,0.753488372093023,0.0,0.0,0.0,0.0,0.24651162790697673
270,0.0,0.0,0.9722222222222221,0.0,0.0,9.259259259259259E-4,0.0037037037037037034,0.02314814814814814
271,0.0,0.0,0.9844594594594597,0.0,0.01283783783783784,0.002027027027027027,0.0,6.756756756756757E-4
272,0.1015625,0.0,0.89453125,0.0,0.0015625,0.0,0.0,0.00234375
273,0.04411764705882353,0.0,0.9480392156862745,0.0,0.0,0.00784313725490196,0.0,0.0
274,0.0,0.0,0.8467105263157894,0.0,0.0013157894736842105,0.003947368421052632,0.0,0.14802631578947367
275,0.0,0.00641025641025641,0.9634615384615385,0.0,0.0,0.02243589743589744,0.007692307692307693,0.0
276,0.0,0.0,0.995967741935484,0.0,8.064516129032258E-4,0.0,0.0032258064516129032,0.0
277,0.0,0.0,1.0,0.0,0.0,0.0,0.0,0.0
278,0.0,0.0,0.9657894736842104,0.014473684210526316,0.0013157894736842105,0.0,0.0,0.018421052631578942
279,0.028151260504201685,0.0,0.923109243697479,0.0,0.041176470588235294,0.0,0.002100840336134454,0.0054621848739495795
280,0.056666666666666664,0.0,0.911851851851852,0.0,0.03148148148148148,0.0,0.0,0.0
281,0.0068627450980392165,0.01862745098039215,0.9735294117647058,0.0,9.80392156862745E-4,0.0,0.0,0.0
282,0.09047619047619046,0.0,0.9000000000000001,0.0023809523809523807,0.0035714285714285713,0.0,0.0035714285714285713,0.0
283,0.07368421052631581,0.0,0.6766447368421051,0.0,0.033552631578947376,0.0,0.001644736842105263,0.21447368421052632
284,0.0026785714285714286,0.0,0.9776785714285714,8.928571428571428E-4,0.018749999999999996,0.0,0.0,0.0
285,0.0,0.0,0.9514084507042252,7.042253521126761E-4,7.042253521126761E-4,0.0,0.0,0.047183098591549295
286,0.11818181818181814,0.004545454545454545,0.8749999999999998,0.0,0.0,0.0,0.0,0.0022727272727272726
287,0.02285714285714286,0.0,0.9414285714285715,0.0,0.0014285714285714286,0.0,0.0,0.03428571428571429
288,0.06229508196721312,0.0,0.6934426229508198,8.19672131147541E-4,0.006557377049180328,8.19672131147541E-4,0.0,0.2360655737704918
289,0.005263157894736842,0.0,0.9947368421052631,0.0,0.0,0.0,0.0,0.0
290,0.0,0.0,0.7445652173913044,0.0,0.2347826086956522,0.01956521739130434,0.0010869565217391304,0.0
291,0.0,0.0,0.9312499999999998,5.681818181818182E-4,0.06363636363636363,0.0,0.004545454545454545,0.0
292,0.04937106918238993,0.0,0.9490566037735849,0.0,0.0,3.144654088050315E-4,0.0,0.001257861635220126
293,0.024166666666666663,0.0,0.9624999999999998,0.010833333333333334,0.0,0.0,0.0025,0.0
294,0.0,0.0,0.93,7.692307692307692E-4,0.06615384615384616,0.0,0.003076923076923077,0.0
295,0.11521739130434783,5.434782608695652E-4,0.8760869565217393,0.0,0.0016304347826086956,0.0,0.0010869565217391304,0.005434782608695653
296,0.030459770114942532,0.0,0.8189655172413793,0.0,0.0,0.013793103448275862,0.0,0.13678160919540228
297,0.0,0.0,0.9916666666666668,0.0,0.008333333333333335,0.0,0.0,0.0
298,0.13194444444444448,0.0013888888888888887,0.7944444444444443,6.944444444444444E-4,0.006944444444444445,0.006250000000000001,0.0,0.058333333333333334
299,0.005084745762711865,0.0,0.9471751412429379,0.0,0.0025423728813559325,0.003954802259887006,0.006779661016949152,0.0344632768361582
300,0.08552631578947369,0.0,0.8986842105263161,6.578947368421052E-4,0.0013157894736842105,0.0,0.0,0.013815789473684212
301,0.006040268456375839,0.0,0.8278523489932887,0.0,0.09496644295302012,0.0,0.0,0.07114093959731543
302,0.1742105263157895,0.0,0.8247368421052632,0.0,0.0010526315789473684,0.0,0.0,0.0
303,0.21086956521739136,0.0,0.7847826086956522,0.0,0.0,0.0,0.0,0.004347826086956522
304,0.0,0.0,1.0,0.0,0.0,0.0,0.0,0.0
305,0.024691358024691357,6.172839506172839E-4,0.9055555555555556,0.0018518518518518517,0.0,0.0,0.006172839506172839,0.061111111111111095
306,0.04308510638297871,5.319148936170213E-4,0.7563829787234042,0.0,0.0026595744680851063,0.002127659574468085,0.0,0.19521276595744677
307,0.0,0.0,0.9984615384615385,7.692307692307692E-4,0.0,0.0,7.692307692307692E-4,0.0
308,0.0,0.0,0.9425925925925925,9.259259259259259E-4,0.0027777777777777775,0.0,0.04629629629629629,0.007407407407407407
309,0.0,0.0032258064516129032,0.9967741935483871,0.0,0.0,0.0,0.0,0.0
310,0.002702702702702703,0.0,0.9783783783783786,0.0,0.0,0.0,6.756756756756757E-4,0.01824324324324324
311,0.08017241379310344,0.0,0.8793103448275863,8.620689655172414E-4,0.02931034482758621,0.010344827586206896,0.0,0.0
312,0.0,0.0,0.8869999999999999,0.0,0.0,0.003,0.027500000000000007,0.08250000000000002
313,0.009,0.001,0.9860000000000001,0.0,0.001,0.001,0.0,0.002
314,0.10982142857142858,0.0,0.8803571428571428,0.0,0.008928571428571428,0.0,0.0,8.928571428571428E-4
315,0.0,0.0,0.7489795918367348,0.0,0.002040816326530612,0.0,0.0,0.2489795918367347
316,0.0,0.0,0.9470833333333335,0.00125,0.014583333333333334,0.0,0.007083333333333333,0.03
317,0.0,0.025806451612903226,0.946774193548387,0.0032258064516129032,0.02258064516129032,0.0016129032258064516,0.0,0.0
318,0.0,6.578947368421052E-4,0.9828947368421052,0.0013157894736842105,0.0,0.0,0.015131578947368418,0.0
319,0.005434782608695652,0.0,0.7554347826086956,0.02065217391304347,0.08152173913043478,0.0,0.0,0.13695652173913042
320,0.0,0.0,1.0,0.0,0.0,0.0,0.0,0.0
641,0.21262626262626264,0.0030303030303030303,0.6434343434343435,0.0,0.13383838383838384,0.0,0.0,0.007070707070707072
642,0.15719424460431652,0.0,0.7579136690647481,0.004676258992805755,0.07338129496402877,0.0,0.005755395683453237,0.001079136690647482
643,0.11477272727272729,0.0,0.8142045454545453,0.0,0.06079545454545454,5.681818181818182E-4,0.0,0.009659090909090909
644,0.0,0.0,1.0,0.0,0.0,0.0,0.0,0.0
645,0.0,0.0,0.834765625,0.019140625,0.093359375,0.04296875,0.002734375,0.00703125
646,0.0,0.0,0.9140243902439025,0.0,0.08353658536585368,6.097560975609756E-4,0.0018292682926829267,0.0
647,0.09476190476190478,9.523809523809525E-4,0.8209523809523811,0.0,0.0,0.0,0.0,0.08333333333333334
648,0.19147727272727272,0.0,0.6443181818181818,0.0,0.057386363636363624,0.0022727272727272726,0.10454545454545454,0.0
649,0.0,0.0,0.9983606557377049,0.0,0.0,0.0,8.19672131147541E-4,8.19672131147541E-4
650,0.0012658227848101266,0.0,0.9031645569620252,0.0,0.00189873417721519,0.0,0.0012658227848101266,0.09240506329113925
651,0.14698275862068966,0.0021551724137931034,0.7564655172413792,8.620689655172414E-4,0.0,0.0017241379310344827,0.01896551724137931,0.0728448275862069
652,0.0,0.0,0.9493150684931507,0.0,0.002054794520547945,0.0,0.0,0.048630136986301385
653,0.1702898550724638,0.0,0.7818840579710147,0.0,0.0036231884057971015,0.0,0.010507246376811594,0.033695652173913036
654,0.04766355140186916,0.004205607476635514,0.8803738317757009,0.0014018691588785046,0.06355140186915888,0.0,0.0,0.002803738317757009
655,0.23947368421052628,0.0,0.718421052631579,0.007894736842105263,0.0,0.02894736842105263,0.0017543859649122805,0.003508771929824561
656,0.0,0.0,1.0,0.0,0.0,0.0,0.0,0.0
657,0.0032258064516129032,0.0,0.982258064516129,0.0,0.008064516129032258,0.0,0.0,0.0064516129032258064
658,0.21153846153846154,0.019230769230769232,0.7201923076923076,0.0,0.0019230769230769232,0.006730769230769232,0.03942307692307692,9.615384615384616E-4
659,0.07307692307692307,0.0,0.8923076923076924,0.0,0.0,0.0,0.014102564102564103,0.020512820512820513
660,0.0,0.0,1.0,0.0,0.0,0.0,0.0,0.0
661,0.2548913043478261,0.002717391304347826,0.6842391304347826,0.004347826086956522,0.0,0.04782608695652173,0.005978260869565218,0.0
662,0.08777777777777777,0.0,0.777037037037037,7.407407407407408E-4,0.04111111111111111,0.014444444444444444,0.062222222222222234,0.016666666666666666
663,0.0,0.0,0.7566037735849057,0.023584905660377357,0.0,0.0,0.0,0.21981132075471704
664,0.14416666666666667,0.0,0.7466666666666668,0.0,0.0,0.005,0.1041666666666667,0.0
665,0.12831325301204818,0.0,0.6951807228915662,0.007831325301204822,0.11686746987951808,0.0018072289156626504,0.04939759036144578,6.024096385542169E-4
666,0.04333333333333333,6.060606060606061E-4,0.8596969696969696,0.0,0.02818181818181818,0.019090909090909092,0.027575757575757576,0.021515151515151515
667,0.07076923076923078,0.003076923076923077,0.900769230769231,0.0,0.015384615384615385,0.008461538461538461,0.0,0.0015384615384615385
668,9.293680297397768E-4,1.858736059479554E-4,0.887360594795539,1.858736059479554E-4,0.046096654275092935,0.014869888475836429,0.0258364312267658,0.02453531598513011
669,0.1034090909090909,0.0,0.831060606060606,0.0,0.035606060606060606,0.029924242424242426,0.0,0.0
670,0.11976744186046513,0.002325581395348837,0.8767441860465116,0.0,0.0,0.0,0.0011627906976744186,0.0
671,0.0,0.0015151515151515152,0.9257575757575758,0.0,0.0030303030303030303,0.0015151515151515152,0.06212121212121211,0.006060606060606061
672,0.0,0.0,0.9960526315789473,0.003947368421052632,0.0,0.0,0.0,0.0
673,6.849315068493151E-4,0.0,0.7116438356164383,0.0,0.23013698630136986,0.0,0.05753424657534245,0.0
674,0.0,0.0,0.7692307692307692,0.0,0.0,0.0,0.11634615384615384,0.11442307692307692
675,0.04521739130434783,0.0,0.8656521739130435,0.0,0.024782608695652176,0.0,0.06434782608695652,0.0
676,0.009285714285714286,0.01,0.8407142857142859,0.0,0.13428571428571429,0.005714285714285714,0.0,0.0
677,0.11050000000000001,0.0,0.6990000000000001,0.00425,0.03975,0.0075000000000000015,0.13799999999999998,0.001
678,0.09733727810650887,0.0,0.802958579881657,8.875739644970415E-4,0.02988165680473373,0.02514792899408284,2.958579881656805E-4,0.043491124260355035
679,0.0,0.0,0.9614457831325302,0.0,0.03614457831325301,0.0,0.0024096385542168677,0.0
680,0.003125,0.0,0.8729166666666668,0.01197916666666667,0.031249999999999993,0.048437499999999994,0.005208333333333333,0.02708333333333333
681,0.21282051282051279,0.0,0.7461538461538461,0.002564102564102564,0.0,0.0,0.001282051282051282,0.03717948717948717
682,0.008888888888888889,0.0,0.9899999999999999,0.0011111111111111111,0.0,0.0,0.0,0.0
683,0.11865079365079365,0.0,0.8388888888888891,0.0,0.04126984126984127,0.0,0.0011904761904761904,0.0
684,0.05872093023255812,0.0,0.8877906976744189,0.0069767441860465115,0.0377906976744186,0.0034883720930232558,0.0011627906976744186,0.004069767441860465
685,0.2703703703703704,0.0,0.7188888888888891,7.407407407407408E-4,3.703703703703704E-4,0.0,0.009259259259259259,3.703703703703704E-4
686,0.0,0.0,0.9989795918367346,0.0,0.001020408163265306,0.0,0.0,0.0
687,0.20333333333333337,0.0,0.7366666666666666,6.666666666666668E-4,0.05533333333333333,0.0,0.0,0.004
688,0.01378205128205128,0.006089743589743589,0.9342948717948717,0.004807692307692307,0.0057692307692307696,0.0,0.03493589743589744,3.205128205128205E-4
689,0.23354430379746835,0.0,0.7075949367088608,0.00379746835443038,0.054430379746835435,0.0,0.0,6.329113924050633E-4
690,0.14074074074074072,0.0,0.850925925925926,0.0,0.0,0.0,0.0,0.008333333333333333
691,0.09872448979591839,0.0,0.6869897959183673,0.0,0.11403061224489794,0.04183673469387755,0.05841836734693878,0.0
692,0.0975409836065574,0.001639344262295082,0.8614754098360654,0.0,0.01885245901639344,0.020491803278688527,0.0,0.0
693,0.02717391304347826,0.0,0.9728260869565217,0.0,0.0,0.0,0.0,0.0
694,0.002857142857142857,0.0,0.8907142857142858,0.0,0.0,7.142857142857143E-4,0.10571428571428572,0.0
695,0.1507462686567164,0.0,0.8029850746268657,0.008208955223880595,0.0029850746268656717,0.0,0.0,0.035074626865671636
696,0.11126760563380285,0.0017605633802816902,0.8595070422535211,0.0,0.0,0.023239436619718307,0.0,0.004225352112676057
697,0.1754237288135593,0.0,0.8228813559322035,0.0,0.0,0.0,0.001694915254237288,0.0
698,0.17857142857142855,0.019047619047619046,0.7726190476190478,0.024999999999999998,0.0035714285714285713,0.0011904761904761904,0.0,0.0
699,0.046464646464646465,0.0,0.8020202020202019,0.0,0.0,0.015656565656565657,0.028787878787878786,0.10707070707070707
700,0.36583333333333334,0.009166666666666667,0.6133333333333334,0.0,0.011666666666666667,0.0,0.0,0.0
701,0.14925373134328354,0.0,0.8402985074626865,0.0,0.010447761194029851,0.0,0.0,0.0
702,0.21400000000000005,0.005,0.7730000000000001,0.0,0.007000000000000001,0.0,0.0,0.001
703,0.2525,0.0025,0.7433333333333332,0.0016666666666666666,0.0,0.0,0.0,0.0
704,0.3423913043478261,0.0,0.5532608695652174,0.0,0.0,0.07608695652173912,0.0,0.028260869565217388
705,0.2801886792452831,0.0,0.6632075471698112,0.0,0.0018867924528301887,0.0,0.0490566037735849,0.0056603773584905665
706,0.11138613861386142,4.950495049504951E-4,0.8618811881188121,0.00495049504950495,4.950495049504951E-4,0.020297029702970305,4.950495049504951E-4,0.0
707,0.27222222222222225,0.0,0.5935185185185184,0.0,9.259259259259259E-4,0.0,0.0,0.1333333333333333
708,0.2255208333333333,0.0,0.7739583333333334,0.0,5.208333333333333E-4,0.0,0.0,0.0
709,0.03608695652173913,0.0,0.9382608695652175,0.008260869565217393,0.0,0.0,8.695652173913044E-4,0.01652173913043478
710,0.24310344827586206,0.0,0.6879310344827586,0.0,0.012068965517241381,0.04655172413793104,0.010344827586206896,0.0
711,0.012,0.0,0.8860000000000001,0.007000000000000001,0.07900000000000003,0.0,0.011,0.005
712,0.10595238095238094,0.0,0.8732142857142856,0.0,0.0,5.952380952380952E-4,0.017857142857142856,0.0023809523809523807
713,0.0038461538461538464,0.0,0.8873626373626375,0.0,0.07582417582417585,0.0,0.03296703296703297,0.0
714,0.08928571428571427,0.0,0.9098214285714287,0.0,0.0,0.0,0.0,8.928571428571428E-4
715,0.0,5.747126436781609E-4,0.8965517241379309,0.0,0.04367816091954023,0.014942528735632182,0.04425287356321839,0.0
716,0.05180722891566266,0.0,0.8234939759036146,0.007228915662650602,0.07108433734939759,0.0,0.0463855421686747,0.0
717,0.0,0.0,0.8940000000000003,0.002,0.0,0.0,0.10400000000000002,0.0
718,0.047872340425531915,0.0,0.8404255319148938,0.0,0.10691489361702129,0.0031914893617021275,0.0,0.0015957446808510637
719,0.009313725490196077,0.0,0.8112745098039218,0.0,0.1764705882352941,0.00196078431372549,9.80392156862745E-4,0.0
720,0.15673076923076926,0.0,0.8298076923076921,0.0,0.007692307692307693,0.0,0.004807692307692308,9.615384615384616E-4
