1,0,0,0.009259259,0.925,0.064814815,9.26E-04,0,0
2,0.001,0,0,0.891,0,0,0,0.108
3,0.017924528,0.003773585,0,0.843396226,0.016037736,0,0,0.118867925
4,0,0,0,0.995833333,0,0,0.004166667,0
5,0.004054054,0,0.035810811,0.892567568,0.060135135,0.006756757,0,6.76E-04
6,0,7.81E-04,0,0.99921875,0,0,0,0
7,0.025373134,0.005223881,0,0.915671642,0,0.004477612,0,0.049253731
8,0.011666667,0.035833333,0.015,0.860833333,0.005,0,0,0.071666667
9,0.005208333,0,0,0.994791667,0,0,0,0
10,0.001886792,0.001886792,0.009433962,0.977358491,0,9.43E-04,9.43E-04,0.00754717
11,0,0,0.074742268,0.683505155,0.133505155,0.008247423,5.15E-04,0.099484536
12,0,0,0,0.996052632,0,0.003947368,0,0
13,0.010126582,0,0.005696203,0.886708861,0.09556962,0.001898734,0,0
14,0.003409091,0,0,0.994318182,0.002272727,0,0,0
15,0,0.001485149,0.008910891,0.885148515,0.057920792,0.003465347,0.002475248,0.040594059
16,0.002941176,0.005882353,0,0.988235294,0.002941176,0,0,0
17,0,0,0,0.905208333,0.001041667,0,0,0.09375
18,0.031875,0,0,0.886875,0,0,0,0.08125
19,6.58E-04,0,0,0.861842105,0.136184211,0.001315789,0,0
20,0,0.037671233,0.036986301,0.904794521,0.009589041,0,0,0.010958904
21,0.017989418,0.027777778,0.012962963,0.93968254,0,0,0.001587302,0
22,0,0,0,0.95862069,0.031034483,0,8.62E-04,0.009482759
23,0,0,0.027319588,0.971134021,5.15E-04,5.15E-04,0,5.15E-04
24,0,0,0.016129032,0.856451613,0,0,0.127419355,0
25,0.092465753,0,0.002054795,0.797945205,0,0,0.054794521,0.052739726
26,0,0,0.013953488,0.958139535,0.025581395,0.002325581,0,0
27,0,0,0.042207792,0.866883117,0,0.090909091,0,0
28,0.046130952,0,0.035714286,0.85922619,0.046130952,0.010714286,0.001190476,8.93E-04
29,0,0,0.007526882,0.961290323,0.011827957,0,0.019354839,0
30,0,0,0.002777778,0.980555556,0.016666667,0,0,0
31,0.012121212,7.58E-04,7.58E-04,0.968181818,7.58E-04,0.009090909,0.008333333,0
32,0,0.009701493,0.070895522,0.785820896,0.08358209,0.008208955,0.041791045,0
33,0,0,0,1,0,0,0,0
34,0,0,0,0.950738916,0,0.034482759,0.011330049,0.003448276
35,0,0,0.065,0.90625,0,0.025,0,0.00375
36,0.001923077,0,9.62E-04,0.993269231,0.003846154,0,0,0
37,0,0,0,1,0,0,0,0
38,0,0,0,0.998076923,0,0,0,0.001923077
39,4.85E-04,4.85E-04,0,0.926213592,0.070873786,0.001456311,0,4.85E-04
40,0,0,0,0.964814815,0,0.001851852,0,0.033333333
41,0,0,5.62E-04,0.756741573,0.175842697,0.065168539,0,0.001685393
42,0.007798165,9.17E-04,0.00412844,0.847706422,0.13440367,0,0.005045872,0
43,0.0015625,0,0.00625,0.8859375,0,0.03515625,0.07109375,0
44,0.001470588,0,0,0.942647059,0.036764706,0.001470588,0.002941176,0.014705882
45,0,0.019230769,9.62E-04,0.979807692,0,0,0,0
46,0.017957746,0,0,0.975352113,0,0.005633803,0,0.001056338
47,0,0.003676471,0,0.972794118,0.006617647,0,0.016911765,0
48,0,0,0.077966102,0.920338983,0,0,0,0.001694915
49,0.015277778,0.041666667,0,0.933333333,0.008333333,0.001388889,0,0
50,0,0.022916667,0.008333333,0.865972222,0.007638889,0.09375,6.94E-04,6.94E-04
51,0,0,6.85E-04,0.930136986,0.069178082,0,0,0
52,0.005128205,0,0,0.888034188,0.105128205,0.001709402,0,0
53,0.01826087,0,0,0.972173913,0,0.009130435,4.35E-04,0
54,0,0,0,0.948351648,0.002747253,0,0.022527473,0.026373626
55,0,0,0.004545455,0.993636364,9.09E-04,9.09E-04,0,0
56,0,0.005882353,0.033333333,0.948039216,0.002941176,0.007843137,0,0.001960784
57,0,0,0.013793103,0.768965517,0.217241379,0,0,0
58,0.005102041,0,0,0.992857143,0,0,0.002040816,0
59,0.013461538,0,0.029487179,0.928846154,0.025641026,0,0.002564103,0
60,0.076751592,0.003184713,0,0.883121019,0,0,0.036942675,0
61,0.011176471,0,0,0.984705882,0.004117647,0,0,0
62,0,0.041780822,0.010958904,0.925342466,0.002739726,0,6.85E-04,0.018493151
63,0,0,0,1,0,0,0,0
64,0.035185185,0,0,0.916666667,0,0.012037037,0,0.036111111
65,0.0085,0.001,0,0.935,0,0.0035,0.0075,0.0445
66,0.047916667,0,0.017447917,0.839583333,0,2.60E-04,0.084635417,0.01015625
67,0.078395062,0,0,0.856790123,0.004938272,0.034567901,0.020987654,0.004320988
68,5.38E-04,0,0.001075269,0.908602151,0.001075269,0.022043011,0.031182796,0.035483871
69,0,0,0,1,0,0,0,0
70,0,0.004310345,0,0.701724138,0.119827586,0,0,0.174137931
71,0.017261905,0,0,0.980952381,0,0.001190476,5.95E-04,0
72,0,0,0.0015,0.8385,0.049,0.069,0.0015,0.0405
73,0.001209677,0,0,0.827822581,0.00483871,0.016935484,0.05483871,0.094354839
74,0.076013514,0,6.76E-04,0.765540541,0.056756757,0.093918919,0.004391892,0.002702703
75,0.001020408,0,5.10E-04,0.829081633,0.004081633,0.135204082,0,0.030102041
76,0.004477612,0,0,0.840298507,0,0.105223881,0.020895522,0.029104478
77,0.023684211,0,0.001973684,0.966447368,0,0,0,0.007894737
78,0,0.001265823,0.042405063,0.937974684,0,0,0.015189873,0.003164557
79,0.05,0,0,0.926388889,0,0,0.002777778,0.020833333
80,0.183962264,0,0,0.813207547,0,0.002830189,0,0
401,0.250649351,0.019480519,0.008441558,0.684415584,0.02012987,0.006493506,0.002597403,0.007792208
402,0.04375,0,0,0.794642857,0.017857143,0,0,0.14375
403,0.102631579,0,0,0.858421053,0,0,0,0.038947368
404,0.05462963,4.63E-04,0,0.940740741,0,0.001851852,4.63E-04,0.001851852
405,0.121311475,0,0,0.777868852,0.006557377,0,0.038934426,0.055327869
406,0.064,0.012666667,0,0.918,0,0,0.005333333,0
407,0.037280702,8.77E-04,0.03377193,0.915789474,0,0,0.004385965,0.007894737
408,0.05,0,0,0.95,0,0,0,0
409,0.05,0,0,0.95,0,0,0,0
410,0.066538462,0,0,0.848076923,0.001153846,0,0,0.084230769
411,0.054672897,0.014953271,0,0.9,0.008878505,0,0.011682243,0.009813084
412,0.022641509,0,9.43E-04,0.962264151,0,0,0.014150943,0
413,0,0.003169014,0,0.888732394,0,0,0,0.108098592
414,0.036904762,0.005357143,0,0.82202381,0,0,5.95E-04,0.135119048
415,0.142647059,0,0,0.751960784,0,0,0.055392157,0.05
416,0,0,0.021153846,0.844230769,0,0.130769231,0.003846154,0
417,0.057954545,0.002272727,0.001704545,0.826136364,0.001704545,0,0.024431818,0.085795455
418,0.001935484,0,6.45E-04,0.877096774,0,0,0.003548387,0.116774194
419,0.259302326,0,0.002325581,0.730232558,0,0,0,0.008139535
420,0.052,0.01,0,0.896,0,0.012,0.001,0.029
421,0,0.023404255,0.00106383,0.975531915,0,0,0,0
422,0.071705426,0,0,0.927906977,0,3.88E-04,0,0
423,0.0084,0,0.0084,0.8864,0.0276,0.0068,0.0624,0
424,0.032743363,0,0,0.850442478,0.104867257,0,0,0.011946903
425,0,0,0,1,0,0,0,0
426,0,0.054166667,0.006944444,0.936111111,0.002777778,0,0,0
427,0.041160221,0,2.76E-04,0.900276243,0.002486188,0.00359116,0.032044199,0.020165746
428,0.036697248,0,0.011926606,0.872477064,0.071100917,0.006651376,0.001146789,0
429,0.153658537,0.015853659,0.03902439,0.768292683,0.02195122,0.001219512,0,0
430,0.103225806,0.011290323,3.23E-04,0.849677419,0.03516129,0,0,3.23E-04
431,0.223333333,0,0,0.6125,0.001666667,0.156666667,0,0.005833333
432,0.007978723,0,0,0.962765957,0,0,0.001595745,0.027659574
433,0.176956522,0.00173913,0,0.760869565,0,4.35E-04,0.06,0
434,0.001724138,0.026436782,0.003448276,0.898275862,0.013218391,0.004597701,0.05,0.002298851
435,0.036875,0.005625,0,0.923125,0.029375,0,0,0.005
436,0.189705882,0.002941176,0.07745098,0.725490196,0,9.80E-04,9.80E-04,0.00245098
437,0,0,0,0.995652174,0.004347826,0,0,0
438,0.001123596,0,0,0.957303371,0,5.62E-04,0,0.041011236
439,9.80E-04,0,0,0.999019608,0,0,0,0
440,0.041975309,0,0.039506173,0.801234568,0.047530864,0.033333333,0.004938272,0.031481481
441,0.051190476,0,0,0.869047619,0,0.00515873,3.97E-04,0.074206349
442,0.108181818,0.005454545,0,0.803636364,9.09E-04,0.063181818,0,0.018636364
443,0.23902439,0.01097561,0,0.581707317,0,0.015853659,0.001219512,0.151219512
444,0.055913978,0.076344086,0,0.860752688,0,0,0,0.006989247
445,0,0,0.022093023,0.848255814,0.002906977,0.084302326,0.005232558,0.037209302
446,0.089156627,0.008433735,0.009036145,0.801204819,0.001204819,0,0.090963855,0
447,0.001351351,0,0,0.955405405,0,0.002702703,0,0.040540541
448,0.204347826,0,0,0.741847826,0,0.016304348,0.0375,0
449,0.107258065,0,0,0.892741935,0,0,0,0
450,0.140384615,9.62E-04,0,0.858653846,0,0,0,0
451,0.077472527,5.49E-04,0.001648352,0.869230769,0.02967033,0,0,0.021428571
452,0.012698413,0.003174603,0,0.854761905,0,0,0.128571429,7.94E-04
453,0.080882353,0,0,0.855882353,0.038235294,0.017647059,0.007352941,0
454,0.053571429,0,0,0.945714286,0,0,0,7.14E-04
455,0.199425287,0,0,0.774712644,0,0,0,0.025862069
456,0,0,0,0.9675,0,0.0325,0,0
457,0.002020202,0,0,0.953030303,0.001515152,0.031818182,0.011616162,0
458,0.029285714,0,0.003571429,0.955,0,0,0.012142857,0
459,0,0,0,0.892948718,0,0,0.043589744,0.063461538
460,0.142592593,0,0,0.856790123,0,6.17E-04,0,0
461,0.069230769,0,0,0.906153846,0.001538462,0.023076923,0,0
462,0.110472973,0,0.002364865,0.878378378,0.00777027,0,6.76E-04,3.38E-04
463,0.103225806,5.38E-04,0.012903226,0.873655914,5.38E-04,0,0,0.009139785
464,0.170967742,0,0.05,0.774731183,0,0.002150538,0,0.002150538
465,0.069897959,0,0,0.853061224,0,0,0.043367347,0.033673469
466,0.118,0,0,0.795333333,0,0,0,0.086666667
467,0,0,0,0.966304348,0.02826087,0,0.004347826,0.001086957
468,0.072580645,0,0,0.891935484,0,0.00483871,0.030645161,0
469,0.11015625,0,0,0.85234375,3.91E-04,0.03125,0.00546875,3.91E-04
470,0.138888889,0,0.052222222,0.807777778,0.001111111,0,0,0
471,0.069230769,0,0,0.898717949,0.030769231,0.001282051,0,0
472,0.00625,0,0,0.990625,0.003125,0,0,0
473,0.078313253,0,0.025903614,0.80060241,0.063855422,0.003614458,0.025903614,0.001807229
474,0.092372881,0,0,0.904237288,8.47E-04,0.002542373,0,0
475,0,0.066666667,0,0.904545455,0.025,0,0,0.003787879
476,0.086923077,0.050769231,0,0.862307692,0,0,0,0
477,0.461666667,0,0,0.538333333,0,0,0,0
478,0,0.049637681,0.026811594,0.923550725,0,0,0,0
479,0.156603774,0.002830189,0,0.583018868,0.25754717,0,0,0
480,0.136956522,0,0,0.860869565,0.002173913,0,0,0
